3 Az adatkezelés R-ben | Szövegbányászat és mesterséges intelligencia R-ben
…
Itt tehát az adattábla azon sorait szeretnénk látni, ahol az ország megegyezik a „Sweden" karakterlánccal, az év pedig 1990 utáni.

A select() függvény segítségével válogathatunk oszlopokat a data frame-ből. A változók kiválasztására több megoldás is van. A dplyr csomag tartalmaz apróbb kisegítő függvényeket, amik megkönnyítik a nagy adatbázisok esetén a változók kiválogatását a nevük alapján. Ezek a függvények a contains(), starts_with(), ends_with(), matches(), és beszédesen arra szolgálnak, hogy bizonyos nevű változókat ne kelljen egyenként felsorolni. A select()-en belüli változó sorrend egyben az eredmény data frame változójának sorrendjét is megadja. A negatív kiválasztás is lehetséges, ebben az esetben egy - jelet kell tennünk a nem kívánt változó(k) elé (pl.: select(df, year, country, -continent).

gapminder %>%
  dplyr::select(dplyr::contains("ea"), dplyr::starts_with("co"), pop)
#> # A tibble: 1,704 x 4
#>    year country     continent      pop
#>   <int> <fct>       <fct>        <int>
#> 1  1952 Afghanistan Asia       8425333
#> 2  1957 Afghanistan Asia       9240934
#> 3  1962 Afghanistan Asia      10267083
#> 4  1967 Afghanistan Asia      11537966
#> 5  1972 Afghanistan Asia      13079460
#> 6  1977 Afghanistan Asia      14880372
#> # ... with 1,698 more rows
…
